%YAML 1.1
%TAG !u! tag:unity3d.com,2011:
--- !u!1045 &1
EditorBuildSettings:
  m_ObjectHideFlags: 0
  serializedVersion: 2
  m_Scenes:
  - enabled: 0
    path: Assets/Template/Scenes/SampleScene.unity
    guid: d1c3109bdb54ad54c8a2b2838528e640
  - enabled: 1
    path: Assets/Scenes/MiniGame.unity
    guid: 2ba47f8a3d2c1394da0a537b05e8c03b
  m_configObjects:
    com.unity.input.settings: {fileID: 11400000, guid: 1956c96724df1de42a0e2ebf72dab1ce, type: 2}
